%YAML 1.1
%TAG !u! tag:unity3d.com,2011:
--- !u!78 &1
TagManager:
  serializedVersion: 2
  tags:
  - Enemy
  - Player Weapon
  layers:
  - Default
  - TransparentFX
  - Ignore Raycast
  - 
  - Water
  - UI
  - 
  - 
  - JumpingGrounds
  - 
  - 
  - 
  - 
  - 
  - 
  - 
  - 
  - 
  - 
  - 
  - 
  - 
  - 
  - 
  - 
  - 
  - 
  - 
  - 
  - 
  - 
  - 
  m_SortingLayers:
  - name: Background
    uniqueID: 3290268361
    locked: 0
  - name: Default
    uniqueID: 0
    locked: 0
  - name: Enemy
    uniqueID: 3061317517
    locked: 0
  - name: Player
    uniqueID: 2870244779
    locked: 0
  - name: Foreground
    uniqueID: 1867430951
    locked: 0
